EESchema Schematic File Version 4
EELAYER 30 0
EELAYER END
$Descr A3 16535 11693
encoding utf-8
Sheet 1 1
Title "Helix beta"
Date "2017-11-5"
Rev "v0.2"
Comp ""
Comment1 ""
Comment2 ""
Comment3 ""
Comment4 ""
$EndDescr
$Comp
L Switch:SW_Push SW1
U 1 1 5986AC91
P 8700 2750
F 0 "SW1" H 8850 2860 50  0000 C CNN
F 1 "SW_PUSH" H 8700 2670 50  0000 C CNN
F 2 "keyswitches:Kailh_socket_MX_optional_reversible" H 8700 2750 50  0001 C CNN
F 3 "" H 8700 2750 50  0000 C CNN
	1    8700 2750
	1    0    0    -1  
$EndComp
$Comp
L Device:D D1
U 1 1 5986ACFA
P 9000 2900
F 0 "D1" H 9000 3000 50  0000 C CNN
F 1 "D" H 9000 2800 50  0000 C CNN
F 2 "Diode_SMD:D_1206_3216Metric_Pad1.42x1.75mm_HandSolder" H 9000 2900 50  0001 C CNN
F 3 "" H 9000 2900 50  0000 C CNN
F 4 "C64898" H 9000 2900 50  0001 C CNN "LCSC"
	1    9000 2900
	0    -1   -1   0   
$EndComp
$Comp
L Switch:SW_Push SW5
U 1 1 5986AE30
P 9550 2750
F 0 "SW5" H 9700 2860 50  0000 C CNN
F 1 "SW_PUSH" H 9550 2670 50  0000 C CNN
F 2 "keyswitches:Kailh_socket_MX_optional_reversible" H 9550 2750 50  0001 C CNN
F 3 "" H 9550 2750 50  0000 C CNN
	1    9550 2750
	1    0    0    -1  
$EndComp
$Comp
L Device:D D5
U 1 1 5986AE36
P 9850 2900
F 0 "D5" H 9850 3000 50  0000 C CNN
F 1 "D" H 9850 2800 50  0000 C CNN
F 2 "Diode_SMD:D_1206_3216Metric_Pad1.42x1.75mm_HandSolder" H 9850 2900 50  0001 C CNN
F 3 "" H 9850 2900 50  0000 C CNN
F 4 "C64898" H 9850 2900 50  0001 C CNN "LCSC"
	1    9850 2900
	0    -1   -1   0   
$EndComp
$Comp
L Switch:SW_Push SW9
U 1 1 5986B47E
P 10400 2750
F 0 "SW9" H 10550 2860 50  0000 C CNN
F 1 "SW_PUSH" H 10400 2670 50  0000 C CNN
F 2 "keyswitches:Kailh_socket_MX_optional_reversible" H 10400 2750 50  0001 C CNN
F 3 "" H 10400 2750 50  0000 C CNN
	1    10400 2750
	1    0    0    -1  
$EndComp
$Comp
L Device:D D9
U 1 1 5986B484
P 10700 2900
F 0 "D9" H 10700 3000 50  0000 C CNN
F 1 "D" H 10700 2800 50  0000 C CNN
F 2 "Diode_SMD:D_1206_3216Metric_Pad1.42x1.75mm_HandSolder" H 10700 2900 50  0001 C CNN
F 3 "" H 10700 2900 50  0000 C CNN
F 4 "C64898" H 10700 2900 50  0001 C CNN "LCSC"
	1    10700 2900
	0    -1   -1   0   
$EndComp
$Comp
L Switch:SW_Push SW13
U 1 1 5986B48A
P 11250 2750
F 0 "SW13" H 11400 2860 50  0000 C CNN
F 1 "SW_PUSH" H 11250 2670 50  0000 C CNN
F 2 "keyswitches:Kailh_socket_MX_optional_reversible" H 11250 2750 50  0001 C CNN
F 3 "" H 11250 2750 50  0000 C CNN
	1    11250 2750
	1    0    0    -1  
$EndComp
$Comp
L Device:D D13
U 1 1 5986B490
P 11550 2900
F 0 "D13" H 11550 3000 50  0000 C CNN
F 1 "D" H 11550 2800 50  0000 C CNN
F 2 "Diode_SMD:D_1206_3216Metric_Pad1.42x1.75mm_HandSolder" H 11550 2900 50  0001 C CNN
F 3 "" H 11550 2900 50  0000 C CNN
F 4 "C64898" H 11550 2900 50  0001 C CNN "LCSC"
	1    11550 2900
	0    -1   -1   0   
$EndComp
$Comp
L Switch:SW_Push SW17
U 1 1 5986BAB7
P 12100 2750
F 0 "SW17" H 12250 2860 50  0000 C CNN
F 1 "SW_PUSH" H 12100 2670 50  0000 C CNN
F 2 "keyswitches:Kailh_socket_MX_optional_reversible" H 12100 2750 50  0001 C CNN
F 3 "" H 12100 2750 50  0000 C CNN
	1    12100 2750
	1    0    0    -1  
$EndComp
$Comp
L Device:D D17
U 1 1 5986BABD
P 12400 2900
F 0 "D17" H 12400 3000 50  0000 C CNN
F 1 "D" H 12400 2800 50  0000 C CNN
F 2 "Diode_SMD:D_1206_3216Metric_Pad1.42x1.75mm_HandSolder" H 12400 2900 50  0001 C CNN
F 3 "" H 12400 2900 50  0000 C CNN
F 4 "C64898" H 12400 2900 50  0001 C CNN "LCSC"
	1    12400 2900
	0    -1   -1   0   
$EndComp
$Comp
L Switch:SW_Push SW22
U 1 1 5986BAC3
P 12950 2750
F 0 "SW22" H 13100 2860 50  0000 C CNN
F 1 "SW_PUSH" H 12950 2670 50  0000 C CNN
F 2 "keyswitches:Kailh_socket_MX_optional_reversible" H 12950 2750 50  0001 C CNN
F 3 "" H 12950 2750 50  0000 C CNN
	1    12950 2750
	1    0    0    -1  
$EndComp
$Comp
L Device:D D22
U 1 1 5986BAC9
P 13250 2900
F 0 "D22" H 13250 3000 50  0000 C CNN
F 1 "D" H 13250 2800 50  0000 C CNN
F 2 "Diode_SMD:D_1206_3216Metric_Pad1.42x1.75mm_HandSolder" H 13250 2900 50  0001 C CNN
F 3 "" H 13250 2900 50  0000 C CNN
F 4 "C64898" H 13250 2900 50  0001 C CNN "LCSC"
	1    13250 2900
	0    -1   -1   0   
$EndComp
$Comp
L Switch:SW_Push SW2
U 1 1 5986C660
P 8700 3350
F 0 "SW2" H 8850 3460 50  0000 C CNN
F 1 "SW_PUSH" H 8700 3270 50  0000 C CNN
F 2 "keyswitches:Kailh_socket_MX_optional_reversible" H 8700 3350 50  0001 C CNN
F 3 "" H 8700 3350 50  0000 C CNN
	1    8700 3350
	1    0    0    -1  
$EndComp
$Comp
L Device:D D2
U 1 1 5986C666
P 9000 3500
F 0 "D2" H 9000 3600 50  0000 C CNN
F 1 "D" H 9000 3400 50  0000 C CNN
F 2 "Diode_SMD:D_1206_3216Metric_Pad1.42x1.75mm_HandSolder" H 9000 3500 50  0001 C CNN
F 3 "" H 9000 3500 50  0000 C CNN
F 4 "C64898" H 9000 3500 50  0001 C CNN "LCSC"
	1    9000 3500
	0    -1   -1   0   
$EndComp
$Comp
L Switch:SW_Push SW6
U 1 1 5986C66C
P 9550 3350
F 0 "SW6" H 9700 3460 50  0000 C CNN
F 1 "SW_PUSH" H 9550 3270 50  0000 C CNN
F 2 "keyswitches:Kailh_socket_MX_optional_reversible" H 9550 3350 50  0001 C CNN
F 3 "" H 9550 3350 50  0000 C CNN
	1    9550 3350
	1    0    0    -1  
$EndComp
$Comp
L Device:D D6
U 1 1 5986C672
P 9850 3500
F 0 "D6" H 9850 3600 50  0000 C CNN
F 1 "D" H 9850 3400 50  0000 C CNN
F 2 "Diode_SMD:D_1206_3216Metric_Pad1.42x1.75mm_HandSolder" H 9850 3500 50  0001 C CNN
F 3 "" H 9850 3500 50  0000 C CNN
F 4 "C64898" H 9850 3500 50  0001 C CNN "LCSC"
	1    9850 3500
	0    -1   -1   0   
$EndComp
$Comp
L Switch:SW_Push SW10
U 1 1 5986C678
P 10400 3350
F 0 "SW10" H 10550 3460 50  0000 C CNN
F 1 "SW_PUSH" H 10400 3270 50  0000 C CNN
F 2 "keyswitches:Kailh_socket_MX_optional_reversible" H 10400 3350 50  0001 C CNN
F 3 "" H 10400 3350 50  0000 C CNN
	1    10400 3350
	1    0    0    -1  
$EndComp
$Comp
L Device:D D10
U 1 1 5986C67E
P 10700 3500
F 0 "D10" H 10700 3600 50  0000 C CNN
F 1 "D" H 10700 3400 50  0000 C CNN
F 2 "Diode_SMD:D_1206_3216Metric_Pad1.42x1.75mm_HandSolder" H 10700 3500 50  0001 C CNN
F 3 "" H 10700 3500 50  0000 C CNN
F 4 "C64898" H 10700 3500 50  0001 C CNN "LCSC"
	1    10700 3500
	0    -1   -1   0   
$EndComp
$Comp
L Switch:SW_Push SW14
U 1 1 5986C684
P 11250 3350
F 0 "SW14" H 11400 3460 50  0000 C CNN
F 1 "SW_PUSH" H 11250 3270 50  0000 C CNN
F 2 "keyswitches:Kailh_socket_MX_optional_reversible" H 11250 3350 50  0001 C CNN
F 3 "" H 11250 3350 50  0000 C CNN
	1    11250 3350
	1    0    0    -1  
$EndComp
$Comp
L Device:D D14
U 1 1 5986C68A
P 11550 3500
F 0 "D14" H 11550 3600 50  0000 C CNN
F 1 "D" H 11550 3400 50  0000 C CNN
F 2 "Diode_SMD:D_1206_3216Metric_Pad1.42x1.75mm_HandSolder" H 11550 3500 50  0001 C CNN
F 3 "" H 11550 3500 50  0000 C CNN
F 4 "C64898" H 11550 3500 50  0001 C CNN "LCSC"
	1    11550 3500
	0    -1   -1   0   
$EndComp
$Comp
L Switch:SW_Push SW18
U 1 1 5986C690
P 12100 3350
F 0 "SW18" H 12250 3460 50  0000 C CNN
F 1 "SW_PUSH" H 12100 3270 50  0000 C CNN
F 2 "keyswitches:Kailh_socket_MX_optional_reversible" H 12100 3350 50  0001 C CNN
F 3 "" H 12100 3350 50  0000 C CNN
	1    12100 3350
	1    0    0    -1  
$EndComp
$Comp
L Device:D D18
U 1 1 5986C696
P 12400 3500
F 0 "D18" H 12400 3600 50  0000 C CNN
F 1 "D" H 12400 3400 50  0000 C CNN
F 2 "Diode_SMD:D_1206_3216Metric_Pad1.42x1.75mm_HandSolder" H 12400 3500 50  0001 C CNN
F 3 "" H 12400 3500 50  0000 C CNN
F 4 "C64898" H 12400 3500 50  0001 C CNN "LCSC"
	1    12400 3500
	0    -1   -1   0   
$EndComp
$Comp
L Switch:SW_Push SW23
U 1 1 5986C69C
P 12950 3350
F 0 "SW23" H 13100 3460 50  0000 C CNN
F 1 "SW_PUSH" H 12950 3270 50  0000 C CNN
F 2 "keyswitches:Kailh_socket_MX_optional_reversible" H 12950 3350 50  0001 C CNN
F 3 "" H 12950 3350 50  0000 C CNN
	1    12950 3350
	1    0    0    -1  
$EndComp
$Comp
L Device:D D23
U 1 1 5986C6A2
P 13250 3500
F 0 "D23" H 13250 3600 50  0000 C CNN
F 1 "D" H 13250 3400 50  0000 C CNN
F 2 "Diode_SMD:D_1206_3216Metric_Pad1.42x1.75mm_HandSolder" H 13250 3500 50  0001 C CNN
F 3 "" H 13250 3500 50  0000 C CNN
F 4 "C64898" H 13250 3500 50  0001 C CNN "LCSC"
	1    13250 3500
	0    -1   -1   0   
$EndComp
$Comp
L Switch:SW_Push SW3
U 1 1 5986C966
P 8700 4000
F 0 "SW3" H 8850 4110 50  0000 C CNN
F 1 "SW_PUSH" H 8700 3920 50  0000 C CNN
F 2 "keyswitches:Kailh_socket_MX_optional_reversible" H 8700 4000 50  0001 C CNN
F 3 "" H 8700 4000 50  0000 C CNN
	1    8700 4000
	1    0    0    -1  
$EndComp
$Comp
L Device:D D3
U 1 1 5986C96C
P 9000 4150
F 0 "D3" H 9000 4250 50  0000 C CNN
F 1 "D" H 9000 4050 50  0000 C CNN
F 2 "Diode_SMD:D_1206_3216Metric_Pad1.42x1.75mm_HandSolder" H 9000 4150 50  0001 C CNN
F 3 "" H 9000 4150 50  0000 C CNN
F 4 "C64898" H 9000 4150 50  0001 C CNN "LCSC"
	1    9000 4150
	0    -1   -1   0   
$EndComp
$Comp
L Switch:SW_Push SW7
U 1 1 5986C972
P 9550 4000
F 0 "SW7" H 9700 4110 50  0000 C CNN
F 1 "SW_PUSH" H 9550 3920 50  0000 C CNN
F 2 "keyswitches:Kailh_socket_MX_optional_reversible" H 9550 4000 50  0001 C CNN
F 3 "" H 9550 4000 50  0000 C CNN
	1    9550 4000
	1    0    0    -1  
$EndComp
$Comp
L Device:D D7
U 1 1 5986C978
P 9850 4150
F 0 "D7" H 9850 4250 50  0000 C CNN
F 1 "D" H 9850 4050 50  0000 C CNN
F 2 "Diode_SMD:D_1206_3216Metric_Pad1.42x1.75mm_HandSolder" H 9850 4150 50  0001 C CNN
F 3 "" H 9850 4150 50  0000 C CNN
F 4 "C64898" H 9850 4150 50  0001 C CNN "LCSC"
	1    9850 4150
	0    -1   -1   0   
$EndComp
$Comp
L Switch:SW_Push SW11
U 1 1 5986C97E
P 10400 4000
F 0 "SW11" H 10550 4110 50  0000 C CNN
F 1 "SW_PUSH" H 10400 3920 50  0000 C CNN
F 2 "keyswitches:Kailh_socket_MX_optional_reversible" H 10400 4000 50  0001 C CNN
F 3 "" H 10400 4000 50  0000 C CNN
	1    10400 4000
	1    0    0    -1  
$EndComp
$Comp
L Device:D D11
U 1 1 5986C984
P 10700 4150
F 0 "D11" H 10700 4250 50  0000 C CNN
F 1 "D" H 10700 4050 50  0000 C CNN
F 2 "Diode_SMD:D_1206_3216Metric_Pad1.42x1.75mm_HandSolder" H 10700 4150 50  0001 C CNN
F 3 "" H 10700 4150 50  0000 C CNN
F 4 "C64898" H 10700 4150 50  0001 C CNN "LCSC"
	1    10700 4150
	0    -1   -1   0   
$EndComp
$Comp
L Switch:SW_Push SW15
U 1 1 5986C98A
P 11250 4000
F 0 "SW15" H 11400 4110 50  0000 C CNN
F 1 "SW_PUSH" H 11250 3920 50  0000 C CNN
F 2 "keyswitches:Kailh_socket_MX_optional_reversible" H 11250 4000 50  0001 C CNN
F 3 "" H 11250 4000 50  0000 C CNN
	1    11250 4000
	1    0    0    -1  
$EndComp
$Comp
L Device:D D15
U 1 1 5986C990
P 11550 4150
F 0 "D15" H 11550 4250 50  0000 C CNN
F 1 "D" H 11550 4050 50  0000 C CNN
F 2 "Diode_SMD:D_1206_3216Metric_Pad1.42x1.75mm_HandSolder" H 11550 4150 50  0001 C CNN
F 3 "" H 11550 4150 50  0000 C CNN
F 4 "C64898" H 11550 4150 50  0001 C CNN "LCSC"
	1    11550 4150
	0    -1   -1   0   
$EndComp
$Comp
L Switch:SW_Push SW19
U 1 1 5986C996
P 12100 4000
F 0 "SW19" H 12250 4110 50  0000 C CNN
F 1 "SW_PUSH" H 12100 3920 50  0000 C CNN
F 2 "keyswitches:Kailh_socket_MX_optional_reversible" H 12100 4000 50  0001 C CNN
F 3 "" H 12100 4000 50  0000 C CNN
	1    12100 4000
	1    0    0    -1  
$EndComp
$Comp
L Device:D D19
U 1 1 5986C99C
P 12400 4150
F 0 "D19" H 12400 4250 50  0000 C CNN
F 1 "D" H 12400 4050 50  0000 C CNN
F 2 "Diode_SMD:D_1206_3216Metric_Pad1.42x1.75mm_HandSolder" H 12400 4150 50  0001 C CNN
F 3 "" H 12400 4150 50  0000 C CNN
F 4 "C64898" H 12400 4150 50  0001 C CNN "LCSC"
	1    12400 4150
	0    -1   -1   0   
$EndComp
$Comp
L Switch:SW_Push SW24
U 1 1 5986C9A2
P 12950 4000
F 0 "SW24" H 13100 4110 50  0000 C CNN
F 1 "SW_PUSH" H 12950 3920 50  0000 C CNN
F 2 "keyswitches:Kailh_socket_MX_optional_reversible" H 12950 4000 50  0001 C CNN
F 3 "" H 12950 4000 50  0000 C CNN
	1    12950 4000
	1    0    0    -1  
$EndComp
$Comp
L Device:D D24
U 1 1 5986C9A8
P 13250 4150
F 0 "D24" H 13250 4250 50  0000 C CNN
F 1 "D" H 13250 4050 50  0000 C CNN
F 2 "Diode_SMD:D_1206_3216Metric_Pad1.42x1.75mm_HandSolder" H 13250 4150 50  0001 C CNN
F 3 "" H 13250 4150 50  0000 C CNN
F 4 "C64898" H 13250 4150 50  0001 C CNN "LCSC"
	1    13250 4150
	0    -1   -1   0   
$EndComp
$Comp
L Switch:SW_Push SW4
U 1 1 5986C9AE
P 8700 4600
F 0 "SW4" H 8850 4710 50  0000 C CNN
F 1 "SW_PUSH" H 8700 4520 50  0000 C CNN
F 2 "keyswitches:Kailh_socket_MX_optional_reversible" H 8700 4600 50  0001 C CNN
F 3 "" H 8700 4600 50  0000 C CNN
	1    8700 4600
	1    0    0    -1  
$EndComp
$Comp
L Device:D D4
U 1 1 5986C9B4
P 9000 4750
F 0 "D4" H 9000 4850 50  0000 C CNN
F 1 "D" H 9000 4650 50  0000 C CNN
F 2 "Diode_SMD:D_1206_3216Metric_Pad1.42x1.75mm_HandSolder" H 9000 4750 50  0001 C CNN
F 3 "" H 9000 4750 50  0000 C CNN
F 4 "C64898" H 9000 4750 50  0001 C CNN "LCSC"
	1    9000 4750
	0    -1   -1   0   
$EndComp
$Comp
L Switch:SW_Push SW8
U 1 1 5986C9BA
P 9550 4600
F 0 "SW8" H 9700 4710 50  0000 C CNN
F 1 "SW_PUSH" H 9550 4520 50  0000 C CNN
F 2 "keyswitches:Kailh_socket_MX_optional_reversible" H 9550 4600 50  0001 C CNN
F 3 "" H 9550 4600 50  0000 C CNN
	1    9550 4600
	1    0    0    -1  
$EndComp
$Comp
L Device:D D8
U 1 1 5986C9C0
P 9850 4750
F 0 "D8" H 9850 4850 50  0000 C CNN
F 1 "D" H 9850 4650 50  0000 C CNN
F 2 "Diode_SMD:D_1206_3216Metric_Pad1.42x1.75mm_HandSolder" H 9850 4750 50  0001 C CNN
F 3 "" H 9850 4750 50  0000 C CNN
F 4 "C64898" H 9850 4750 50  0001 C CNN "LCSC"
	1    9850 4750
	0    -1   -1   0   
$EndComp
$Comp
L Switch:SW_Push SW12
U 1 1 5986C9C6
P 10400 4600
F 0 "SW12" H 10550 4710 50  0000 C CNN
F 1 "SW_PUSH" H 10400 4520 50  0000 C CNN
F 2 "keyswitches:Kailh_socket_MX_optional_reversible" H 10400 4600 50  0001 C CNN
F 3 "" H 10400 4600 50  0000 C CNN
	1    10400 4600
	1    0    0    -1  
$EndComp
$Comp
L Device:D D12
U 1 1 5986C9CC
P 10700 4750
F 0 "D12" H 10700 4850 50  0000 C CNN
F 1 "D" H 10700 4650 50  0000 C CNN
F 2 "Diode_SMD:D_1206_3216Metric_Pad1.42x1.75mm_HandSolder" H 10700 4750 50  0001 C CNN
F 3 "" H 10700 4750 50  0000 C CNN
F 4 "C64898" H 10700 4750 50  0001 C CNN "LCSC"
	1    10700 4750
	0    -1   -1   0   
$EndComp
$Comp
L Switch:SW_Push SW16
U 1 1 5986C9D2
P 11250 4600
F 0 "SW16" H 11400 4710 50  0000 C CNN
F 1 "SW_PUSH" H 11250 4520 50  0000 C CNN
F 2 "keyswitches:Kailh_socket_MX_optional_reversible" H 11250 4600 50  0001 C CNN
F 3 "" H 11250 4600 50  0000 C CNN
	1    11250 4600
	1    0    0    -1  
$EndComp
$Comp
L Device:D D16
U 1 1 5986C9D8
P 11550 4750
F 0 "D16" H 11550 4850 50  0000 C CNN
F 1 "D" H 11550 4650 50  0000 C CNN
F 2 "Diode_SMD:D_1206_3216Metric_Pad1.42x1.75mm_HandSolder" H 11550 4750 50  0001 C CNN
F 3 "" H 11550 4750 50  0000 C CNN
F 4 "C64898" H 11550 4750 50  0001 C CNN "LCSC"
	1    11550 4750
	0    -1   -1   0   
$EndComp
$Comp
L Switch:SW_Push SW20
U 1 1 5986C9DE
P 12100 4600
F 0 "SW20" H 12250 4710 50  0000 C CNN
F 1 "SW_PUSH" H 12100 4520 50  0000 C CNN
F 2 "keyswitches:Kailh_socket_MX_optional_reversible" H 12100 4600 50  0001 C CNN
F 3 "" H 12100 4600 50  0000 C CNN
	1    12100 4600
	1    0    0    -1  
$EndComp
$Comp
L Device:D D20
U 1 1 5986C9E4
P 12400 4750
F 0 "D20" H 12400 4850 50  0000 C CNN
F 1 "D" H 12400 4650 50  0000 C CNN
F 2 "Diode_SMD:D_1206_3216Metric_Pad1.42x1.75mm_HandSolder" H 12400 4750 50  0001 C CNN
F 3 "" H 12400 4750 50  0000 C CNN
F 4 "C64898" H 12400 4750 50  0001 C CNN "LCSC"
	1    12400 4750
	0    -1   -1   0   
$EndComp
$Comp
L Switch:SW_Push SW25
U 1 1 5986C9EA
P 12950 4600
F 0 "SW25" H 13100 4710 50  0000 C CNN
F 1 "SW_PUSH" H 12950 4520 50  0000 C CNN
F 2 "keyswitches:Kailh_socket_MX_optional_reversible" H 12950 4600 50  0001 C CNN
F 3 "" H 12950 4600 50  0000 C CNN
	1    12950 4600
	1    0    0    -1  
$EndComp
$Comp
L Device:D D25
U 1 1 5986C9F0
P 13250 4750
F 0 "D25" H 13250 4850 50  0000 C CNN
F 1 "D" H 13250 4650 50  0000 C CNN
F 2 "Diode_SMD:D_1206_3216Metric_Pad1.42x1.75mm_HandSolder" H 13250 4750 50  0001 C CNN
F 3 "" H 13250 4750 50  0000 C CNN
F 4 "C64898" H 13250 4750 50  0001 C CNN "LCSC"
	1    13250 4750
	0    -1   -1   0   
$EndComp
Text GLabel 8150 3050 0    60   Input ~ 0
row0
Text GLabel 8150 3650 0    60   Input ~ 0
row1
Text GLabel 8150 4300 0    60   Input ~ 0
row2
Text GLabel 8150 4900 0    60   Input ~ 0
row3
Text GLabel 8400 2550 1    60   Input ~ 0
col0
Text GLabel 9250 2550 1    60   Input ~ 0
col1
Text GLabel 10100 2550 1    60   Input ~ 0
col2
Text GLabel 10950 2550 1    60   Input ~ 0
col3
Text GLabel 11800 2550 1    60   Input ~ 0
col4
Text GLabel 12650 2550 1    60   Input ~ 0
col5
Text GLabel 3800 2350 2    60   Input ~ 0
row0
Text GLabel 3800 2450 2    60   Input ~ 0
row1
Text GLabel 3800 2550 2    60   Input ~ 0
row2
Text GLabel 3800 2650 2    60   Input ~ 0
row3
Text GLabel 3800 3650 2    60   Input ~ 0
col0
Text GLabel 3800 3550 2    60   Input ~ 0
col1
Text GLabel 3800 3450 2    60   Input ~ 0
col2
Text GLabel 3800 3350 2    60   Input ~ 0
col3
Text GLabel 3800 3250 2    60   Input ~ 0
col4
Text GLabel 3800 3150 2    60   Input ~ 0
col5
$Comp
L Switch:SW_Push SW32
U 1 1 59875EC2
P 1650 3200
F 0 "SW32" H 1800 3310 50  0000 C CNN
F 1 "Reset" H 1650 3120 50  0000 C CNN
F 2 "Button_Switch_SMD:SW_SPST_EVPBF" H 1650 3200 50  0001 C CNN
F 3 "" H 1650 3200 50  0000 C CNN
F 4 "C223820" H 1650 3200 50  0001 C CNN "LCSC"
	1    1650 3200
	1    0    0    -1  
$EndComp
$Comp
L power:VCC #PWR03
U 1 1 5987EBDF
P 2600 1650
F 0 "#PWR03" H 2600 1500 50  0001 C CNN
F 1 "VCC" H 2600 1800 50  0000 C CNN
F 2 "" H 2600 1650 50  0000 C CNN
F 3 "" H 2600 1650 50  0000 C CNN
	1    2600 1650
	1    0    0    -1  
$EndComp
Text Label 3550 3150 0    60   ~ 0
MISO
Text Label 3550 3250 0    60   ~ 0
SCK
Text Label 3550 3050 0    60   ~ 0
MOSI
Text Label 2300 2250 2    60   ~ 0
~RESET
Text Label 1950 3200 0    60   ~ 0
~RESET
$Comp
L power:VCC #PWR01
U 1 1 598BA2D5
P 700 700
F 0 "#PWR01" H 700 550 50  0001 C CNN
F 1 "VCC" H 700 850 50  0000 C CNN
F 2 "" H 700 700 50  0000 C CNN
F 3 "" H 700 700 50  0000 C CNN
	1    700  700 
	1    0    0    -1  
$EndComp
$Comp
L power:PWR_FLAG #FLG01
U 1 1 598BB00D
P 700 700
F 0 "#FLG01" H 700 795 50  0001 C CNN
F 1 "PWR_FLAG" H 700 880 50  0000 C CNN
F 2 "" H 700 700 50  0000 C CNN
F 3 "" H 700 700 50  0000 C CNN
	1    700  700 
	-1   0    0    1   
$EndComp
$Comp
L power:PWR_FLAG #FLG02
U 1 1 598BB1DF
P 1050 750
F 0 "#FLG02" H 1050 845 50  0001 C CNN
F 1 "PWR_FLAG" H 1050 930 50  0000 C CNN
F 2 "" H 1050 750 50  0000 C CNN
F 3 "" H 1050 750 50  0000 C CNN
	1    1050 750 
	1    0    0    -1  
$EndComp
$Comp
L power:VCC #PWR05
U 1 1 59B056BA
P 4750 1750
F 0 "#PWR05" H 4750 1600 50  0001 C CNN
F 1 "VCC" H 4750 1900 50  0000 C CNN
F 2 "" H 4750 1750 50  0000 C CNN
F 3 "" H 4750 1750 50  0000 C CNN
	1    4750 1750
	1    0    0    -1  
$EndComp
Text GLabel 8150 5500 0    60   Input ~ 0
row4
Text GLabel 3800 2750 2    60   Input ~ 0
row4
Text GLabel 3800 3050 2    60   Input ~ 0
col6
Text GLabel 13500 2550 1    60   Input ~ 0
col6
$Comp
L Switch:SW_Push SW30
U 1 1 5A04BA4A
P 13800 4600
F 0 "SW30" H 13950 4710 50  0000 C CNN
F 1 "SW_PUSH" H 13800 4520 50  0000 C CNN
F 2 "keyswitches:Kailh_socket_MX_optional_reversible" H 13800 4600 50  0001 C CNN
F 3 "" H 13800 4600 50  0000 C CNN
	1    13800 4600
	1    0    0    -1  
$EndComp
$Comp
L Switch:SW_Push SW31
U 1 1 5A04C914
P 13800 5200
F 0 "SW31" H 13950 5310 50  0000 C CNN
F 1 "SW_PUSH" H 13800 5120 50  0000 C CNN
F 2 "keyswitches:Kailh_socket_MX_optional_reversible" H 13800 5200 50  0001 C CNN
F 3 "" H 13800 5200 50  0000 C CNN
	1    13800 5200
	1    0    0    -1  
$EndComp
$Comp
L Device:D D30
U 1 1 5A04CB0D
P 14100 4750
F 0 "D30" H 14100 4850 50  0000 C CNN
F 1 "D" H 14100 4650 50  0000 C CNN
F 2 "Diode_SMD:D_1206_3216Metric_Pad1.42x1.75mm_HandSolder" H 14100 4750 50  0001 C CNN
F 3 "" H 14100 4750 50  0000 C CNN
F 4 "C64898" H 14100 4750 50  0001 C CNN "LCSC"
	1    14100 4750
	0    -1   -1   0   
$EndComp
$Comp
L Device:D D31
U 1 1 5A04CD15
P 14100 5350
F 0 "D31" H 14100 5450 50  0000 C CNN
F 1 "D" H 14100 5250 50  0000 C CNN
F 2 "Diode_SMD:D_1206_3216Metric_Pad1.42x1.75mm_HandSolder" H 14100 5350 50  0001 C CNN
F 3 "" H 14100 5350 50  0000 C CNN
F 4 "C64898" H 14100 5350 50  0001 C CNN "LCSC"
	1    14100 5350
	0    -1   -1   0   
$EndComp
Wire Wire Line
	3550 2550 3800 2550
Wire Wire Line
	3550 2650 3800 2650
Wire Wire Line
	3550 2750 3800 2750
Wire Wire Line
	3550 3050 3800 3050
Wire Wire Line
	3550 3150 3800 3150
Wire Wire Line
	3550 3250 3800 3250
Wire Wire Line
	3550 3350 3800 3350
Wire Wire Line
	3550 3450 3800 3450
Wire Wire Line
	3550 2350 3800 2350
Wire Wire Line
	3800 2450 3550 2450
Wire Wire Line
	3550 3550 3800 3550
Wire Wire Line
	3550 3650 3800 3650
Wire Wire Line
	4750 1750 4750 2050
Wire Wire Line
	4750 2450 4750 2150
Wire Wire Line
	4750 2150 4900 2150
Wire Wire Line
	4750 2050 4900 2050
NoConn ~ 3550 2850
NoConn ~ 3550 2950
Text Label 3550 2850 0    60   ~ 0
ex1
Text Label 3550 2950 0    60   ~ 0
ex2
Wire Wire Line
	8150 3050 9000 3050
Wire Wire Line
	8150 3650 9000 3650
Wire Wire Line
	8150 4300 9000 4300
Wire Wire Line
	8150 4900 9000 4900
$Comp
L Mechanical:MountingHole H1
U 1 1 5CBE51DD
P 6050 6300
F 0 "H1" H 6150 6346 50  0000 L CNN
F 1 "MountingHole" H 6150 6255 50  0000 L CNN
F 2 "MountingHole:MountingHole_2.2mm_M2" H 6050 6300 50  0001 C CNN
F 3 "~" H 6050 6300 50  0001 C CNN
	1    6050 6300
	1    0    0    -1  
$EndComp
$Comp
L Mechanical:MountingHole H2
U 1 1 5CBE541A
P 6050 6500
F 0 "H2" H 6150 6546 50  0000 L CNN
F 1 "MountingHole" H 6150 6455 50  0000 L CNN
F 2 "MountingHole:MountingHole_2.2mm_M2" H 6050 6500 50  0001 C CNN
F 3 "~" H 6050 6500 50  0001 C CNN
	1    6050 6500
	1    0    0    -1  
$EndComp
$Comp
L Mechanical:MountingHole H3
U 1 1 5CBE7733
P 6050 6700
F 0 "H3" H 6150 6746 50  0000 L CNN
F 1 "MountingHole" H 6150 6655 50  0000 L CNN
F 2 "MountingHole:MountingHole_2.2mm_M2" H 6050 6700 50  0001 C CNN
F 3 "~" H 6050 6700 50  0001 C CNN
	1    6050 6700
	1    0    0    -1  
$EndComp
$Comp
L Mechanical:MountingHole H4
U 1 1 5CBE78D5
P 6050 6900
F 0 "H4" H 6150 6946 50  0000 L CNN
F 1 "MountingHole" H 6150 6855 50  0000 L CNN
F 2 "MountingHole:MountingHole_2.2mm_M2" H 6050 6900 50  0001 C CNN
F 3 "~" H 6050 6900 50  0001 C CNN
	1    6050 6900
	1    0    0    -1  
$EndComp
$Comp
L Mechanical:MountingHole H5
U 1 1 5CBEFBD4
P 6050 7400
F 0 "H5" H 6150 7446 50  0000 L CNN
F 1 "MountingHole" H 6150 7355 50  0000 L CNN
F 2 "MountingHole:MountingHole_2.2mm_M2" H 6050 7400 50  0001 C CNN
F 3 "~" H 6050 7400 50  0001 C CNN
	1    6050 7400
	1    0    0    -1  
$EndComp
Connection ~ 13250 4900
Wire Wire Line
	13250 4900 14100 4900
Connection ~ 12400 4900
Wire Wire Line
	12400 4900 13250 4900
Connection ~ 11550 4900
Wire Wire Line
	11550 4900 12400 4900
Connection ~ 10700 4900
Wire Wire Line
	10700 4900 11550 4900
Connection ~ 9850 4900
Wire Wire Line
	9850 4900 10700 4900
Connection ~ 9000 4900
Wire Wire Line
	9000 4900 9850 4900
Connection ~ 9000 3050
Wire Wire Line
	9000 3050 9850 3050
Connection ~ 9000 3650
Wire Wire Line
	9000 3650 9850 3650
Connection ~ 9000 4300
Wire Wire Line
	9000 4300 9850 4300
Connection ~ 10700 3050
Wire Wire Line
	10700 3050 11550 3050
Connection ~ 9850 3050
Wire Wire Line
	9850 3050 10700 3050
Connection ~ 9850 3650
Wire Wire Line
	9850 3650 10700 3650
Connection ~ 10700 3650
Wire Wire Line
	10700 3650 11550 3650
Connection ~ 10700 4300
Wire Wire Line
	10700 4300 11550 4300
Connection ~ 9850 4300
Wire Wire Line
	9850 4300 10700 4300
Connection ~ 11550 4300
Wire Wire Line
	11550 4300 12400 4300
Connection ~ 11550 3650
Wire Wire Line
	11550 3650 12400 3650
Connection ~ 11550 3050
Wire Wire Line
	11550 3050 12400 3050
Connection ~ 12400 3050
Connection ~ 12400 3650
Connection ~ 12400 4300
Wire Wire Line
	8150 5500 12400 5500
$Comp
L Switch:SW_Push SW27
U 1 1 603F10F7
P 13800 2750
F 0 "SW27" H 13950 2860 50  0000 C CNN
F 1 "SW_PUSH" H 13800 2670 50  0000 C CNN
F 2 "keyswitches:Kailh_socket_MX_optional_reversible" H 13800 2750 50  0001 C CNN
F 3 "" H 13800 2750 50  0000 C CNN
	1    13800 2750
	1    0    0    -1  
$EndComp
$Comp
L Device:D D27
U 1 1 603F10FD
P 14100 2900
F 0 "D27" H 14100 3000 50  0000 C CNN
F 1 "D" H 14100 2800 50  0000 C CNN
F 2 "Diode_SMD:D_1206_3216Metric_Pad1.42x1.75mm_HandSolder" H 14100 2900 50  0001 C CNN
F 3 "" H 14100 2900 50  0000 C CNN
F 4 "C64898" H 14100 2900 50  0001 C CNN "LCSC"
	1    14100 2900
	0    -1   -1   0   
$EndComp
$Comp
L Switch:SW_Push SW28
U 1 1 603F1103
P 13800 3350
F 0 "SW28" H 13950 3460 50  0000 C CNN
F 1 "SW_PUSH" H 13800 3270 50  0000 C CNN
F 2 "keyswitches:Kailh_socket_MX_optional_reversible" H 13800 3350 50  0001 C CNN
F 3 "" H 13800 3350 50  0000 C CNN
	1    13800 3350
	1    0    0    -1  
$EndComp
$Comp
L Device:D D28
U 1 1 603F1109
P 14100 3500
F 0 "D28" H 14100 3600 50  0000 C CNN
F 1 "D" H 14100 3400 50  0000 C CNN
F 2 "Diode_SMD:D_1206_3216Metric_Pad1.42x1.75mm_HandSolder" H 14100 3500 50  0001 C CNN
F 3 "" H 14100 3500 50  0000 C CNN
F 4 "C64898" H 14100 3500 50  0001 C CNN "LCSC"
	1    14100 3500
	0    -1   -1   0   
$EndComp
$Comp
L Switch:SW_Push SW29
U 1 1 603F110F
P 13800 4000
F 0 "SW29" H 13950 4110 50  0000 C CNN
F 1 "SW_PUSH" H 13800 3920 50  0000 C CNN
F 2 "keyswitches:Kailh_socket_MX_optional_reversible" H 13800 4000 50  0001 C CNN
F 3 "" H 13800 4000 50  0000 C CNN
	1    13800 4000
	1    0    0    -1  
$EndComp
$Comp
L Device:D D29
U 1 1 603F1115
P 14100 4150
F 0 "D29" H 14100 4250 50  0000 C CNN
F 1 "D" H 14100 4050 50  0000 C CNN
F 2 "Diode_SMD:D_1206_3216Metric_Pad1.42x1.75mm_HandSolder" H 14100 4150 50  0001 C CNN
F 3 "" H 14100 4150 50  0000 C CNN
F 4 "C64898" H 14100 4150 50  0001 C CNN "LCSC"
	1    14100 4150
	0    -1   -1   0   
$EndComp
Wire Wire Line
	12400 4300 13250 4300
Connection ~ 13250 4300
Wire Wire Line
	13250 4300 14100 4300
Wire Wire Line
	12400 3650 13250 3650
Connection ~ 13250 3650
Wire Wire Line
	13250 3650 14100 3650
Wire Wire Line
	12400 3050 13250 3050
Connection ~ 13250 3050
Wire Wire Line
	13250 3050 14100 3050
$Comp
L Switch:SW_Push SW26
U 1 1 6042025C
P 12950 5200
F 0 "SW26" H 13100 5310 50  0000 C CNN
F 1 "SW_PUSH" H 12950 5120 50  0000 C CNN
F 2 "keyswitches:Kailh_socket_MX_optional_reversible" H 12950 5200 50  0001 C CNN
F 3 "" H 12950 5200 50  0000 C CNN
	1    12950 5200
	1    0    0    -1  
$EndComp
$Comp
L Device:D D26
U 1 1 60420262
P 13250 5350
F 0 "D26" H 13250 5450 50  0000 C CNN
F 1 "D" H 13250 5250 50  0000 C CNN
F 2 "Diode_SMD:D_1206_3216Metric_Pad1.42x1.75mm_HandSolder" H 13250 5350 50  0001 C CNN
F 3 "" H 13250 5350 50  0000 C CNN
F 4 "C64898" H 13250 5350 50  0001 C CNN "LCSC"
	1    13250 5350
	0    -1   -1   0   
$EndComp
$Comp
L Switch:SW_Push SW21
U 1 1 60423508
P 12100 5200
F 0 "SW21" H 12250 5310 50  0000 C CNN
F 1 "SW_PUSH" H 12100 5120 50  0000 C CNN
F 2 "keyswitches:Kailh_socket_MX_optional_reversible" H 12100 5200 50  0001 C CNN
F 3 "" H 12100 5200 50  0000 C CNN
	1    12100 5200
	1    0    0    -1  
$EndComp
$Comp
L Device:D D21
U 1 1 6042350E
P 12400 5350
F 0 "D21" H 12400 5450 50  0000 C CNN
F 1 "D" H 12400 5250 50  0000 C CNN
F 2 "Diode_SMD:D_1206_3216Metric_Pad1.42x1.75mm_HandSolder" H 12400 5350 50  0001 C CNN
F 3 "" H 12400 5350 50  0000 C CNN
F 4 "C64898" H 12400 5350 50  0001 C CNN "LCSC"
	1    12400 5350
	0    -1   -1   0   
$EndComp
$Comp
L george-rescue:ProMicro-helix-cache-2019-03-21-22-27-31-helix-rescue U1
U 1 1 5986A7F2
P 2900 2800
F 0 "U1" H 3300 3800 60  0000 C CNN
F 1 "ProMicro" V 2700 2800 60  0000 C CNN
F 2 "Keebio-Parts:ArduinoProMicro-Mini-USB" H 2900 2900 60  0001 C CNN
F 3 "" H 2900 2900 60  0000 C CNN
	1    2900 2800
	1    0    0    -1  
$EndComp
Connection ~ 12400 5500
Wire Wire Line
	12400 5500 13250 5500
Connection ~ 13250 5500
Wire Wire Line
	13250 5500 14100 5500
NoConn ~ 3550 1950
Wire Wire Line
	3550 2250 4900 2250
NoConn ~ 3550 2050
$Comp
L Connector:AudioJack4 J1
U 1 1 60500D2A
P 5100 2250
F 0 "J1" H 4770 2133 50  0000 R CNN
F 1 "AudioJack4" H 4770 2224 50  0000 R CNN
F 2 "Keebio-Parts:TRRS-PJ-320A-dual" H 5100 2250 50  0001 C CNN
F 3 "~" H 5100 2250 50  0001 C CNN
	1    5100 2250
	-1   0    0    1   
$EndComp
NoConn ~ 4900 2350
$Comp
L Device:R R1
U 1 1 6050963C
P 4100 2150
F 0 "R1" V 3893 2150 50  0000 C CNN
F 1 "10 KΩ" V 3984 2150 50  0000 C CNN
F 2 "Resistor_SMD:R_0805_2012Metric_Pad1.20x1.40mm_HandSolder" V 4030 2150 50  0001 C CNN
F 3 "~" H 4100 2150 50  0001 C CNN
F 4 "C17414" V 4100 2150 50  0001 C CNN "LCSC"
	1    4100 2150
	0    1    1    0   
$EndComp
Wire Wire Line
	4250 2150 4400 2150
$Comp
L power:VCC #PWR0103
U 1 1 6034C8C9
P 2700 1650
F 0 "#PWR0103" H 2700 1500 50  0001 C CNN
F 1 "VCC" H 2700 1800 50  0000 C CNN
F 2 "" H 2700 1650 50  0000 C CNN
F 3 "" H 2700 1650 50  0000 C CNN
	1    2700 1650
	1    0    0    -1  
$EndComp
Wire Wire Line
	12650 2550 12650 2750
Wire Wire Line
	11800 2550 11800 2750
Wire Wire Line
	8400 2550 8400 2750
Wire Wire Line
	9250 2550 9250 2750
Wire Wire Line
	10100 2550 10100 2750
Wire Wire Line
	10950 2550 10950 2750
$Comp
L power:GND #PWR0101
U 1 1 6035AA35
P 4750 2450
F 0 "#PWR0101" H 4750 2200 50  0001 C CNN
F 1 "GND" H 4755 2277 50  0000 C CNN
F 2 "" H 4750 2450 50  0001 C CNN
F 3 "" H 4750 2450 50  0001 C CNN
	1    4750 2450
	1    0    0    -1  
$EndComp
$Comp
L power:GND #PWR0102
U 1 1 6035D0DA
P 2800 3950
F 0 "#PWR0102" H 2800 3700 50  0001 C CNN
F 1 "GND" H 2805 3777 50  0000 C CNN
F 2 "" H 2800 3950 50  0001 C CNN
F 3 "" H 2800 3950 50  0001 C CNN
	1    2800 3950
	1    0    0    -1  
$EndComp
$Comp
L power:GND #PWR0105
U 1 1 6035FDEB
P 2700 3950
F 0 "#PWR0105" H 2700 3700 50  0001 C CNN
F 1 "GND" H 2705 3777 50  0000 C CNN
F 2 "" H 2700 3950 50  0001 C CNN
F 3 "" H 2700 3950 50  0001 C CNN
	1    2700 3950
	1    0    0    -1  
$EndComp
$Comp
L power:GND #PWR0106
U 1 1 6035FF65
P 2600 3950
F 0 "#PWR0106" H 2600 3700 50  0001 C CNN
F 1 "GND" H 2605 3777 50  0000 C CNN
F 2 "" H 2600 3950 50  0001 C CNN
F 3 "" H 2600 3950 50  0001 C CNN
	1    2600 3950
	1    0    0    -1  
$EndComp
$Comp
L power:GND #PWR0107
U 1 1 60360218
P 1050 750
F 0 "#PWR0107" H 1050 500 50  0001 C CNN
F 1 "GND" H 1055 577 50  0000 C CNN
F 2 "" H 1050 750 50  0001 C CNN
F 3 "" H 1050 750 50  0001 C CNN
	1    1050 750 
	1    0    0    -1  
$EndComp
$Comp
L power:GND #PWR0108
U 1 1 60360D34
P 1350 3200
F 0 "#PWR0108" H 1350 2950 50  0001 C CNN
F 1 "GND" H 1355 3027 50  0000 C CNN
F 2 "" H 1350 3200 50  0001 C CNN
F 3 "" H 1350 3200 50  0001 C CNN
	1    1350 3200
	1    0    0    -1  
$EndComp
Wire Wire Line
	1350 3200 1450 3200
Wire Wire Line
	1850 3200 1950 3200
Wire Wire Line
	8500 4600 8400 4600
Connection ~ 8400 4600
Wire Wire Line
	8400 4600 8400 5200
Wire Wire Line
	8500 4000 8400 4000
Connection ~ 8400 4000
Wire Wire Line
	8400 4000 8400 4600
Wire Wire Line
	8500 3350 8400 3350
Connection ~ 8400 3350
Wire Wire Line
	8400 3350 8400 4000
Wire Wire Line
	8500 2750 8400 2750
Connection ~ 8400 2750
Wire Wire Line
	8400 2750 8400 3350
Wire Wire Line
	8900 2750 9000 2750
Wire Wire Line
	9000 3350 8900 3350
Wire Wire Line
	8900 4000 9000 4000
Wire Wire Line
	8900 4600 9000 4600
Wire Wire Line
	9250 4600 9350 4600
Connection ~ 9250 4600
Wire Wire Line
	9250 4600 9250 5200
Wire Wire Line
	9350 4000 9250 4000
Connection ~ 9250 4000
Wire Wire Line
	9250 4000 9250 4600
Wire Wire Line
	9250 3350 9350 3350
Connection ~ 9250 3350
Wire Wire Line
	9250 3350 9250 4000
Wire Wire Line
	9350 2750 9250 2750
Connection ~ 9250 2750
Wire Wire Line
	9250 2750 9250 3350
Wire Wire Line
	9750 2750 9850 2750
Wire Wire Line
	9750 3350 9850 3350
Wire Wire Line
	9850 4000 9750 4000
Wire Wire Line
	9750 4600 9850 4600
Wire Wire Line
	10600 4600 10700 4600
Wire Wire Line
	10200 4600 10100 4600
Connection ~ 10100 4600
Wire Wire Line
	10100 4600 10100 5200
Wire Wire Line
	10200 4000 10100 4000
Connection ~ 10100 4000
Wire Wire Line
	10100 4000 10100 4600
Wire Wire Line
	10200 3350 10100 3350
Connection ~ 10100 3350
Wire Wire Line
	10100 3350 10100 4000
Wire Wire Line
	10200 2750 10100 2750
Connection ~ 10100 2750
Wire Wire Line
	10100 2750 10100 3350
Wire Wire Line
	10600 2750 10700 2750
Wire Wire Line
	10600 3350 10700 3350
Wire Wire Line
	10600 4000 10700 4000
Wire Wire Line
	11900 4600 11800 4600
Connection ~ 11800 4600
Wire Wire Line
	11800 4600 11800 5200
Wire Wire Line
	11050 4600 10950 4600
Connection ~ 10950 4600
Wire Wire Line
	10950 4600 10950 5200
Wire Wire Line
	10950 4000 11050 4000
Connection ~ 10950 4000
Wire Wire Line
	10950 4000 10950 4600
Wire Wire Line
	11450 4000 11550 4000
Wire Wire Line
	11450 4600 11550 4600
Wire Wire Line
	11050 3350 10950 3350
Connection ~ 10950 3350
Wire Wire Line
	10950 3350 10950 4000
Wire Wire Line
	11450 3350 11550 3350
Wire Wire Line
	11550 2750 11450 2750
Wire Wire Line
	11050 2750 10950 2750
Connection ~ 10950 2750
Wire Wire Line
	10950 2750 10950 3350
Wire Wire Line
	11900 2750 11800 2750
Connection ~ 11800 2750
Wire Wire Line
	11800 2750 11800 3350
Wire Wire Line
	12300 2750 12400 2750
Wire Wire Line
	12400 3350 12300 3350
Wire Wire Line
	11900 3350 11800 3350
Connection ~ 11800 3350
Wire Wire Line
	11800 3350 11800 4000
Wire Wire Line
	11800 4000 11900 4000
Connection ~ 11800 4000
Wire Wire Line
	11800 4000 11800 4600
Wire Wire Line
	12300 4000 12400 4000
Wire Wire Line
	12400 4600 12300 4600
Wire Wire Line
	12400 5200 12300 5200
Wire Wire Line
	11900 5200 11800 5200
Wire Wire Line
	12650 5200 12750 5200
Wire Wire Line
	12750 4600 12650 4600
Connection ~ 12650 4600
Wire Wire Line
	12650 4600 12650 5200
Wire Wire Line
	12750 4000 12650 4000
Connection ~ 12650 4000
Wire Wire Line
	12650 4000 12650 4600
Wire Wire Line
	12750 3350 12650 3350
Connection ~ 12650 3350
Wire Wire Line
	12650 3350 12650 4000
Wire Wire Line
	12750 2750 12650 2750
Connection ~ 12650 2750
Wire Wire Line
	12650 2750 12650 3350
Wire Wire Line
	13150 2750 13250 2750
Wire Wire Line
	13150 3350 13250 3350
Wire Wire Line
	13150 4000 13250 4000
Wire Wire Line
	13150 4600 13250 4600
Wire Wire Line
	13150 5200 13250 5200
Wire Wire Line
	13500 2550 13500 2750
Wire Wire Line
	13600 3350 13500 3350
Connection ~ 13500 3350
Wire Wire Line
	13500 3350 13500 4000
Wire Wire Line
	13500 2750 13600 2750
Connection ~ 13500 2750
Wire Wire Line
	13500 2750 13500 3350
Wire Wire Line
	14000 2750 14100 2750
Wire Wire Line
	14100 3350 14000 3350
Wire Wire Line
	14100 4000 14000 4000
Wire Wire Line
	13600 4000 13500 4000
Connection ~ 13500 4000
Wire Wire Line
	13500 4000 13500 4600
Wire Wire Line
	13500 4600 13600 4600
Connection ~ 13500 4600
Wire Wire Line
	13500 4600 13500 5200
Wire Wire Line
	14000 4600 14100 4600
Wire Wire Line
	14100 5200 14000 5200
Wire Wire Line
	13600 5200 13500 5200
$Comp
L power:VCC #PWR0104
U 1 1 6038721F
P 4400 2150
F 0 "#PWR0104" H 4400 2000 50  0001 C CNN
F 1 "VCC" H 4400 2300 50  0000 C CNN
F 2 "" H 4400 2150 50  0000 C CNN
F 3 "" H 4400 2150 50  0000 C CNN
	1    4400 2150
	1    0    0    -1  
$EndComp
$Comp
L Mechanical:MountingHole H6
U 1 1 6038BEE0
P 4500 6550
F 0 "H6" H 4600 6596 50  0000 L CNN
F 1 "Logo" H 4600 6505 50  0000 L CNN
F 2 "Stochastic:Logo_10mm" H 4500 6550 50  0001 C CNN
F 3 "~" H 4500 6550 50  0001 C CNN
	1    4500 6550
	1    0    0    -1  
$EndComp
$Comp
L Device:R R2
U 1 1 60736E4D
P 4100 1700
F 0 "R2" V 3893 1700 50  0000 C CNN
F 1 "10 KΩ" V 3984 1700 50  0000 C CNN
F 2 "Resistor_SMD:R_0805_2012Metric_Pad1.20x1.40mm_HandSolder" V 4030 1700 50  0001 C CNN
F 3 "~" H 4100 1700 50  0001 C CNN
F 4 "C17414" V 4100 1700 50  0001 C CNN "LCSC"
	1    4100 1700
	0    1    1    0   
$EndComp
Wire Wire Line
	3550 2150 3950 2150
Wire Wire Line
	3950 1700 3950 2150
Connection ~ 3950 2150
$Comp
L power:GND #PWR0109
U 1 1 607442EB
P 4400 1700
F 0 "#PWR0109" H 4400 1450 50  0001 C CNN
F 1 "GND" H 4405 1527 50  0000 C CNN
F 2 "" H 4400 1700 50  0001 C CNN
F 3 "" H 4400 1700 50  0001 C CNN
	1    4400 1700
	1    0    0    -1  
$EndComp
Wire Wire Line
	4250 1700 4400 1700
$EndSCHEMATC
